%YAML 1.1
%TAG !u! tag:unity3d.com,2011:
--- !u!1001 &100100000
Prefab:
  m_ObjectHideFlags: 1
  serializedVersion: 2
  m_Modification:
    m_TransformParent: {fileID: 0}
    m_Modifications: []
    m_RemovedComponents: []
  m_ParentPrefab: {fileID: 0}
  m_RootGameObject: {fileID: 1653870347052828}
  m_IsPrefabParent: 1
--- !u!1 &1653870347052828
GameObject:
  m_ObjectHideFlags: 0
  m_PrefabParentObject: {fileID: 0}
  m_PrefabInternal: {fileID: 100100000}
  serializedVersion: 5
  m_Component:
  - component: {fileID: 224592057094536628}
  - component: {fileID: 114875738993031200}
  m_Layer: 5
  m_Name: GainCoins
  m_TagString: Untagged
  m_Icon: {fileID: 0}
  m_NavMeshLayer: 0
  m_StaticEditorFlags: 0
  m_IsActive: 1
--- !u!114 &114875738993031200
MonoBehaviour:
  m_ObjectHideFlags: 1
  m_PrefabParentObject: {fileID: 0}
  m_PrefabInternal: {fileID: 100100000}
  m_GameObject: {fileID: 1653870347052828}
  m_Enabled: 1
  m_EditorHideFlags: 0
  m_Script: {fileID: 11500000, guid: e1709a9326b73ae47b10f8d4fdd32dba, type: 3}
  m_Name: 
  m_EditorClassIdentifier: 
  prefab: {fileID: 1460823789043396, guid: 675767361a421e644b504ad0fa96affe, type: 2}
  rootTransform: {fileID: 0}
  maxSize: 0
  target: {fileID: 0}
  explodeDelay: 0
  explodeTime: 0.5
  moveDelay: 0
  moveInterval: 0.01
  moveTime: 0.5
  scaleTime: 0.5
  minScale: 1
  maxScale: 2
  endScale: 1
  spawnInterval: 0
  minSpawnRadius: 10
  maxSpawnRadius: 150
--- !u!224 &224592057094536628
RectTransform:
  m_ObjectHideFlags: 1
  m_PrefabParentObject: {fileID: 0}
  m_PrefabInternal: {fileID: 100100000}
  m_GameObject: {fileID: 1653870347052828}
  m_LocalRotation: {x: 0, y: 0, z: 0, w: 1}
  m_LocalPosition: {x: 0, y: 0, z: 0}
  m_LocalScale: {x: 1, y: 1, z: 1}
  m_Children: []
  m_Father: {fileID: 0}
  m_RootOrder: 0
  m_LocalEulerAnglesHint: {x: 0, y: 0, z: 0}
  m_AnchorMin: {x: 0.5, y: 0.5}
  m_AnchorMax: {x: 0.5, y: 0.5}
  m_AnchoredPosition: {x: 0, y: 0}
  m_SizeDelta: {x: 0, y: 0}
  m_Pivot: {x: 0.5, y: 0.5}
